<?xml version="1.0" encoding="UTF-8"?>
<Project>
   <description></description>
   <name>ponang_finalprojectsanbercode_katalon</name>
   <tag></tag>
   <UUID>0f9946c1-6823-4e8b-83f7-e12d3394ea05</UUID>
   <migratedVersion>5.9.0</migratedVersion>
   <pageLoadTimeout>0</pageLoadTimeout>
   <projectFileLocation>E:\#Pramudhitya\Sanbercode QA\Tugas\FinalProject\katalon\ponang_finalprojectsanbercode_katalon\ponang_finalprojectsanbercode_katalon.prj</projectFileLocation>
   <sourceContent>
      <sourceFolderList>
         <sourceFolderConfiguration>
            <url>Include/scripts/groovy</url>
         </sourceFolderConfiguration>
      </sourceFolderList>
      <systemFolderList>
         <systemFolderConfiguration>
            <url>Include/scripts/groovy</url>
         </systemFolderConfiguration>
         <systemFolderConfiguration>
            <url>Include/features</url>
         </systemFolderConfiguration>
         <systemFolderConfiguration>
            <url>Include/config</url>
         </systemFolderConfiguration>
      </systemFolderList>
   </sourceContent>
   <timeStampInProperties>false</timeStampInProperties>
   <type>GENERIC</type>
</Project>
