Suite/Test/Step Name,Browser,Description,Tag,Start time,End time,Duration,Status
SuiteAppointment,Chrome 108.0.0.0,,,2022-12-18 13:41:19,2022-12-18 13:43:11,1m - 51.374s,PASSED
,,,,,,,
Test Cases/TestMakeAppointment/TC_APPOINTMENT,Chrome 108.0.0.0,,,2022-12-18 13:41:21,2022-12-18 13:42:19,58.056s,PASSED
"openBrowser("""")",Chrome 108.0.0.0,,,2022-12-18 13:41:24,2022-12-18 13:41:33,8.756s,PASSED
"navigateToUrl(""https://katalon-demo-cura.herokuapp.com/profile.php#login"")",Chrome 108.0.0.0,,,2022-12-18 13:41:33,2022-12-18 13:41:43,10.057s,PASSED
"setText(findTestObject(""Object Repository/LoginAsset/Page_CURA Healthcare Service/input_Username_username""), username)",Chrome 108.0.0.0,,,2022-12-18 13:41:43,2022-12-18 13:41:45,1.934s,PASSED
"setText(findTestObject(""Object Repository/LoginAsset/Page_CURA Healthcare Service/input_Password_password""), password)",Chrome 108.0.0.0,,,2022-12-18 13:41:45,2022-12-18 13:41:46,1.646s,PASSED
"click(findTestObject(""LoginAsset/Page_CURA Healthcare Service/button_Login""))",Chrome 108.0.0.0,,,2022-12-18 13:41:46,2022-12-18 13:41:49,2.773s,PASSED
delay(3),Chrome 108.0.0.0,,,2022-12-18 13:41:49,2022-12-18 13:41:52,3.250s,PASSED
"selectOptionByValue(findTestObject(""Object Repository/AppointmentAsset/Page_CURA Healthcare Service/select_Tokyo CURA Healthcare Center        _5b4107""), facility, true)",Chrome 108.0.0.0,,,2022-12-18 13:41:52,2022-12-18 13:41:54,2.089s,PASSED
"if (readmission == ""Yes"")",Chrome 108.0.0.0,,,2022-12-18 13:41:54,2022-12-18 13:41:55,0.925s,PASSED
"if (program == ""Medicare"")",Chrome 108.0.0.0,,,2022-12-18 13:41:55,2022-12-18 13:41:55,0.003s,PASSED
"else if (program == ""Medicaid"")",Chrome 108.0.0.0,,,2022-12-18 13:41:55,2022-12-18 13:41:56,0.841s,PASSED
"setText(findTestObject(""Object Repository/AppointmentAsset/Page_CURA Healthcare Service/input_Visit Date (Required)_visit_date""), visit_date)",Chrome 108.0.0.0,,,2022-12-18 13:41:56,2022-12-18 13:41:58,1.960s,PASSED
"setText(findTestObject(""Object Repository/AppointmentAsset/Page_CURA Healthcare Service/textarea_Comment_comment""), comment)",Chrome 108.0.0.0,,,2022-12-18 13:41:58,2022-12-18 13:42:00,1.564s,PASSED
"click(findTestObject(""Object Repository/AppointmentAsset/Page_CURA Healthcare Service/button_Book Appointment""))",Chrome 108.0.0.0,,,2022-12-18 13:42:00,2022-12-18 13:42:03,3.430s,PASSED
delay(5),Chrome 108.0.0.0,,,2022-12-18 13:42:03,2022-12-18 13:42:08,5.030s,PASSED
"if (status == ""Success"")",Chrome 108.0.0.0,,,2022-12-18 13:42:08,2022-12-18 13:42:14,5.671s,PASSED
closeBrowser(),Chrome 108.0.0.0,,,2022-12-18 13:42:14,2022-12-18 13:42:19,5.343s,PASSED
,,,,,,,
Test Cases/TestMakeAppointment/TC_APPOINTMENT,Chrome 108.0.0.0,,,2022-12-18 13:42:20,2022-12-18 13:43:11,50.574s,PASSED
"openBrowser("""")",Chrome 108.0.0.0,,,2022-12-18 13:42:20,2022-12-18 13:42:27,7.143s,PASSED
"navigateToUrl(""https://katalon-demo-cura.herokuapp.com/profile.php#login"")",Chrome 108.0.0.0,,,2022-12-18 13:42:27,2022-12-18 13:42:46,18.582s,PASSED
"setText(findTestObject(""Object Repository/LoginAsset/Page_CURA Healthcare Service/input_Username_username""), username)",Chrome 108.0.0.0,,,2022-12-18 13:42:46,2022-12-18 13:42:47,1.340s,PASSED
"setText(findTestObject(""Object Repository/LoginAsset/Page_CURA Healthcare Service/input_Password_password""), password)",Chrome 108.0.0.0,,,2022-12-18 13:42:47,2022-12-18 13:42:49,1.568s,PASSED
"click(findTestObject(""LoginAsset/Page_CURA Healthcare Service/button_Login""))",Chrome 108.0.0.0,,,2022-12-18 13:42:49,2022-12-18 13:42:52,2.931s,PASSED
delay(3),Chrome 108.0.0.0,,,2022-12-18 13:42:52,2022-12-18 13:42:55,3.023s,PASSED
"selectOptionByValue(findTestObject(""Object Repository/AppointmentAsset/Page_CURA Healthcare Service/select_Tokyo CURA Healthcare Center        _5b4107""), facility, true)",Chrome 108.0.0.0,,,2022-12-18 13:42:55,2022-12-18 13:42:57,1.614s,PASSED
"if (readmission == ""Yes"")",Chrome 108.0.0.0,,,2022-12-18 13:42:57,2022-12-18 13:42:57,0.002s,PASSED
"if (program == ""Medicare"")",Chrome 108.0.0.0,,,2022-12-18 13:42:57,2022-12-18 13:42:57,0.710s,PASSED
"setText(findTestObject(""Object Repository/AppointmentAsset/Page_CURA Healthcare Service/input_Visit Date (Required)_visit_date""), visit_date)",Chrome 108.0.0.0,,,2022-12-18 13:42:57,2022-12-18 13:42:59,1.434s,PASSED
"setText(findTestObject(""Object Repository/AppointmentAsset/Page_CURA Healthcare Service/textarea_Comment_comment""), comment)",Chrome 108.0.0.0,,,2022-12-18 13:42:59,2022-12-18 13:43:00,1.551s,PASSED
"click(findTestObject(""Object Repository/AppointmentAsset/Page_CURA Healthcare Service/button_Book Appointment""))",Chrome 108.0.0.0,,,2022-12-18 13:43:00,2022-12-18 13:43:02,1.770s,PASSED
delay(5),Chrome 108.0.0.0,,,2022-12-18 13:43:02,2022-12-18 13:43:07,5.043s,PASSED
"if (status == ""Success"")",Chrome 108.0.0.0,,,2022-12-18 13:43:07,2022-12-18 13:43:07,0.002s,PASSED
"else if (status == ""Failed"")",Chrome 108.0.0.0,,,2022-12-18 13:43:07,2022-12-18 13:43:09,2.148s,PASSED
closeBrowser(),Chrome 108.0.0.0,,,2022-12-18 13:43:09,2022-12-18 13:43:11,1.387s,PASSED
