Suite/Test/Step Name,Browser,Description,Tag,Start time,End time,Duration,Status
SuiteHistoryPage,Chrome 108.0.0.0,,,2022-12-20 17:49:34,2022-12-20 17:50:35,1m - 0.606s,PASSED
,,,,,,,
Test Cases/TestHistoryPage/TC_HistoryPage,Chrome 108.0.0.0,,,2022-12-20 17:49:37,2022-12-20 17:50:35,57.680s,PASSED
"openBrowser("""")",Chrome 108.0.0.0,,,2022-12-20 17:49:39,2022-12-20 17:49:51,11.321s,PASSED
"callTestCase(findTestCase(""Function/LoginFunction""), [""username"":username, ""password"":password], STOP_ON_FAILURE)",Chrome 108.0.0.0,,,2022-12-20 17:49:51,2022-12-20 17:50:09,18.173s,PASSED
"callTestCase(findTestCase(""Function/AppointmentFunction""), [""username"":username, ""password"":password, ""facility"":facility, ""readmission"":readmission, ""program"":program, ""visit_date"":visit_date, ... ], STOP_ON_FAILURE)",Chrome 108.0.0.0,,,2022-12-20 17:50:09,2022-12-20 17:50:28,18.720s,PASSED
"navigateToUrl(""https://katalon-demo-cura.herokuapp.com/history.php#history"")",Chrome 108.0.0.0,,,2022-12-20 17:50:28,2022-12-20 17:50:29,1.241s,PASSED
"verifyElementText(findTestObject(""HistoryPage Asset/Page_CURA Healthcare Service/historyDate""), visit_date)",Chrome 108.0.0.0,,,2022-12-20 17:50:29,2022-12-20 17:50:30,1.243s,PASSED
"verifyElementText(findTestObject(""HistoryPage Asset/Page_CURA Healthcare Service/historyFacility""), facility)",Chrome 108.0.0.0,,,2022-12-20 17:50:30,2022-12-20 17:50:31,0.763s,PASSED
"verifyElementText(findTestObject(""HistoryPage Asset/Page_CURA Healthcare Service/historyProgram""), program)",Chrome 108.0.0.0,,,2022-12-20 17:50:31,2022-12-20 17:50:32,0.807s,PASSED
"verifyElementText(findTestObject(""HistoryPage Asset/Page_CURA Healthcare Service/historyReadmission""), readmission)",Chrome 108.0.0.0,,,2022-12-20 17:50:32,2022-12-20 17:50:32,0.776s,PASSED
"verifyElementText(findTestObject(""HistoryPage Asset/Page_CURA Healthcare Service/historyComment""), comment)",Chrome 108.0.0.0,,,2022-12-20 17:50:32,2022-12-20 17:50:33,0.730s,PASSED
closeBrowser(),Chrome 108.0.0.0,,,2022-12-20 17:50:33,2022-12-20 17:50:35,1.859s,PASSED
